{
  "data": [
{
      "see_all_photos": "http://www.tripadvisor.com/LocationPhotos-g60745-d258705-mMCID-Hotel_Commonwealth-Boston_Massachusetts.html",
      "web_url": "http://www.tripadvisor.com/Hotel_Review-g60745-d258705-Reviews-mMCID-Hotel_Commonwealth-Boston_Massachusetts.html",
      "percent_recommended": null,
      "location_string": "Dubai, UAE",
      "location_id": "258705",
      "write_review": "http://www.tripadvisor.com/UserReview-g60745-d258705-mMCID-Hotel_Commonwealth-Boston_Massachusetts.html",
      "price_level": "$$$$",
      "api_detail_url": "http://api.tripadvisor.com/api/partner/2.0/location/258705?key=<YOUR KEY HERE>",
      "address_obj": {
        "street1": "Dubai International Airport Terminal Hotel",
        "street2": null,
        "city": "Dubai",
        "state": "UAE",
        "country": "UAE",
        "postalcode": "02215",
        "address_string": "Dubai International Airport Terminal Hotel | Terminal 1 & Terminal 3"
      },
      "category": {
        "name": "hotel",
        "localized_name": "Hotel"
      },
      "awards": [
        {
          "award_type": "Traveler's Choice",
          "year": "2014",
          "images": {
            "small": "http://www.tripadvisor.com/img/cdsi/img2/awards/tchotel_2014_L_R-MCID-5.png",
            "large": "http://www.tripadvisor.com/img2/awards/TC_2014_downloadable_L_R.jpg"
          },
          "categories": [
            "Top Hotels"
          ],
          "display_name": "Traveler's Choice"
        },
        {
          "award_type": "Certificate of Excellence",
          "year": "2014",
          "images": {
            "small": "http://www.tripadvisor.com/img/cdsi/img2/awards/CERTIFICATE_OF_EXCELLENCE_small-MCID-5.jpg",
            "large": "http://www.tripadvisor.com/img/cdsi/img2/awards/CERTIFICATE_OF_EXCELLENCE_2014_en_US_large-MCID-5.jpg"
          },
          "categories": [],
          "display_name": "Certificate of Excellence 2014"
        }
      ],
      "num_reviews": "2583",
      "subcategory": [
        {
          "name": "hotel",
          "localized_name": "Hotel"
        }
      ],
      "rating_image_url": "http://www.tripadvisor.com/img/cdsi/img2/ratings/traveler/5.0-MCID-5.png",
      "name": "Dubai International Airport Terminal Hotel",
      "ancestors": [
        {
          "abbrv": null,
          "level": "City",
          "name": "DUabi",
          "location_id": "60745"
        },
        {
          "abbrv": "MA",
          "level": "State",
          "name": "UAE",
          "location_id": "28942"
        },
        {
          "abbrv": null,
          "level": "Country",
          "name": "UAE",
          "location_id": "191"
        }
      ],
      "longitude": "25.245178",
      "latitude": "55.359438",
      "rating": "5.0",
      "ranking_data": {
        "geo_location_id": "60745",
        "ranking_string": "#1 of 77 hotels in DUbai",
        "geo_location_name": "Dubai",
        "ranking_out_of": "77",
        "ranking": "1"
      }
    },
    {
      "see_all_photos": "http://www.tripadvisor.com/LocationPhotos-g60745-d258705-mMCID-Hotel_Commonwealth-Boston_Massachusetts.html",
      "web_url": "http://www.tripadvisor.com/Hotel_Review-g60745-d258705-Reviews-mMCID-Hotel_Commonwealth-Boston_Massachusetts.html",
      "percent_recommended": null,
      "location_string": "Dubai, UAE",
      "location_id": "258705",
      "write_review": "http://www.tripadvisor.com/UserReview-g60745-d258705-mMCID-Hotel_Commonwealth-Boston_Massachusetts.html",
      "price_level": "$$$$",
      "api_detail_url": "http://api.tripadvisor.com/api/partner/2.0/location/258705?key=<YOUR KEY HERE>",
      "address_obj": {
        "street1": "Abu Baker Al Siddique Rd",
        "street2": null,
        "city": "Dubai",
        "state": "UAE",
        "country": "UAE",
        "postalcode": "02215",
        "address_string": "Abu Baker Al Siddique Rd, Deira, next to Hamarain Shopping Center, P.O. Box 1659"
      },
      "category": {
        "name": "hotel",
        "localized_name": "Hotel"
      },
      "awards": [
        {
          "award_type": "Traveler's Choice",
          "year": "2014",
          "images": {
            "small": "http://www.tripadvisor.com/img/cdsi/img2/awards/tchotel_2014_L_R-MCID-5.png",
            "large": "http://www.tripadvisor.com/img2/awards/TC_2014_downloadable_L_R.jpg"
          },
          "categories": [
            "Top Hotels"
          ],
          "display_name": "Traveler's Choice"
        },
        {
          "award_type": "Certificate of Excellence",
          "year": "2014",
          "images": {
            "small": "http://www.tripadvisor.com/img/cdsi/img2/awards/CERTIFICATE_OF_EXCELLENCE_small-MCID-5.jpg",
            "large": "http://www.tripadvisor.com/img/cdsi/img2/awards/CERTIFICATE_OF_EXCELLENCE_2014_en_US_large-MCID-5.jpg"
          },
          "categories": [],
          "display_name": "Certificate of Excellence 2014"
        }
      ],
      "num_reviews": "2583",
      "subcategory": [
        {
          "name": "hotel",
          "localized_name": "Hotel"
        }
      ],
      "rating_image_url": "http://www.tripadvisor.com/img/cdsi/img2/ratings/traveler/5.0-MCID-5.png",
      "name": "JW Marriott Hotel",
      "ancestors": [
        {
          "abbrv": null,
          "level": "City",
          "name": "DUabi",
          "location_id": "60745"
        },
        {
          "abbrv": "MA",
          "level": "State",
          "name": "UAE",
          "location_id": "28942"
        },
        {
          "abbrv": null,
          "level": "Country",
          "name": "UAE",
          "location_id": "191"
        }
      ],
      "longitude": "25.1856",
      "latitude": "55.2566",
      "rating": "5.0",
      "ranking_data": {
        "geo_location_id": "60745",
        "ranking_string": "#1 of 77 hotels in DUbai",
        "geo_location_name": "Dubai",
        "ranking_out_of": "77",
        "ranking": "1"
      }
    },
    {
       "see_all_photos": "http://www.tripadvisor.com/LocationPhotos-g60745-d258705-mMCID-Hotel_Commonwealth-Boston_Massachusetts.html",
      "web_url": "http://www.tripadvisor.com/Hotel_Review-g60745-d258705-Reviews-mMCID-Hotel_Commonwealth-Boston_Massachusetts.html",
      "percent_recommended": null,
      "location_string": "Dubai, UAE",
      "location_id": "258705",
      "write_review": "http://www.tripadvisor.com/UserReview-g60745-d258705-mMCID-Hotel_Commonwealth-Boston_Massachusetts.html",
      "price_level": "$$$$",
      "api_detail_url": "http://api.tripadvisor.com/api/partner/2.0/location/258705?key=<YOUR KEY HERE>",
      "address_obj": {
        "street1": "Sheikh Zayed Road",
        "street2": null,
        "city": "Dubai",
        "state": "UAE",
        "country": "UAE",
        "postalcode": "02215",
        "address_string": " Crowne Plaza Hotel, Sheikh Zayed Road Dubai UAE "
      },
      "category": {
        "name": "hotel",
        "localized_name": "Hotel"
      },
      "awards": [
        {
          "award_type": "Traveler's Choice",
          "year": "2014",
          "images": {
            "small": "http://www.tripadvisor.com/img/cdsi/img2/awards/tchotel_2014_L_R-MCID-5.png",
            "large": "http://www.tripadvisor.com/img2/awards/TC_2014_downloadable_L_R.jpg"
          },
          "categories": [
            "Top Hotels"
          ],
          "display_name": "Traveler's Choice"
        },
        {
          "award_type": "Certificate of Excellence",
          "year": "2014",
          "images": {
            "small": "http://www.tripadvisor.com/img/cdsi/img2/awards/CERTIFICATE_OF_EXCELLENCE_small-MCID-5.jpg",
            "large": "http://www.tripadvisor.com/img/cdsi/img2/awards/CERTIFICATE_OF_EXCELLENCE_2014_en_US_large-MCID-5.jpg"
          },
          "categories": [],
          "display_name": "Certificate of Excellence 2014"
        }
      ],
      "num_reviews": "2583",
      "subcategory": [
        {
          "name": "hotel",
          "localized_name": "Hotel"
        }
      ],
      "rating_image_url": "http://www.tripadvisor.com/img/cdsi/img2/ratings/traveler/5.0-MCID-5.png",
      "name": " Crowne Plaza",
      "ancestors": [
        {
          "abbrv": null,
          "level": "City",
          "name": "DUabi",
          "location_id": "60745"
        },
        {
          "abbrv": "MA",
          "level": "State",
          "name": "UAE",
          "location_id": "28942"
        },
        {
          "abbrv": null,
          "level": "Country",
          "name": "UAE",
          "location_id": "191"
        }
      ],
      "longitude": "25.270475",
      "latitude": "55.325669",
      "rating": "5.0",
      "ranking_data": {
        "geo_location_id": "60745",
        "ranking_string": "#2 of 77 hotels in DUbai",
        "geo_location_name": "Dubai",
        "ranking_out_of": "77",
        "ranking": "1"
      }},
    {
      "see_all_photos": "http://www.tripadvisor.com/LocationPhotos-g60745-d258705-mMCID-Hotel_Commonwealth-Boston_Massachusetts.html",
      "web_url": "http://www.tripadvisor.com/Hotel_Review-g60745-d258705-Reviews-mMCID-Hotel_Commonwealth-Boston_Massachusetts.html",
      "percent_recommended": null,
      "location_string": "Dubai, UAE",
      "location_id": "258705",
      "write_review": "http://www.tripadvisor.com/UserReview-g60745-d258705-mMCID-Hotel_Commonwealth-Boston_Massachusetts.html",
      "price_level": "$$$$",
      "api_detail_url": "http://api.tripadvisor.com/api/partner/2.0/location/258705?key=<YOUR KEY HERE>",
      "address_obj": {
        "street1": "Jumeirah Beach Road",
        "street2": null,
        "city": "Dubai",
        "state": "UAE",
        "country": "UAE",
        "postalcode": "02215",
        "address_string": "Jumeirah Beach Road, Jumeirah 3 "
      },
      "category": {
        "name": "hotel",
        "localized_name": "Hotel"
      },
      "awards": [
        {
          "award_type": "Traveler's Choice",
          "year": "2014",
          "images": {
            "small": "http://www.tripadvisor.com/img/cdsi/img2/awards/tchotel_2014_L_R-MCID-5.png",
            "large": "http://www.tripadvisor.com/img2/awards/TC_2014_downloadable_L_R.jpg"
          },
          "categories": [
            "Top Hotels"
          ],
          "display_name": "Traveler's Choice"
        },
        {
          "award_type": "Certificate of Excellence",
          "year": "2014",
          "images": {
            "small": "http://www.tripadvisor.com/img/cdsi/img2/awards/CERTIFICATE_OF_EXCELLENCE_small-MCID-5.jpg",
            "large": "http://www.tripadvisor.com/img/cdsi/img2/awards/CERTIFICATE_OF_EXCELLENCE_2014_en_US_large-MCID-5.jpg"
          },
          "categories": [],
          "display_name": "Certificate of Excellence 2014"
        }
      ],
      "num_reviews": "2583",
      "subcategory": [
        {
          "name": "hotel",
          "localized_name": "Hotel"
        }
      ],
      "rating_image_url": "http://www.tripadvisor.com/img/cdsi/img2/ratings/traveler/5.0-MCID-5.png",
      "name": "burj al arab",
      "ancestors": [
        {
          "abbrv": null,
          "level": "City",
          "name": "DUabi",
          "location_id": "60745"
        },
        {
          "abbrv": "MA",
          "level": "State",
          "name": "UAE",
          "location_id": "28942"
        },
        {
          "abbrv": null,
          "level": "Country",
          "name": "UAE",
          "location_id": "191"
        }
      ],
      "longitude": "25.1420",
      "latitude": "55.1861",
      "rating": "5.0",
      "ranking_data": {
        "geo_location_id": "60745",
        "ranking_string": "#3 of 77 hotels in DUbai",
        "geo_location_name": "Dubai",
        "ranking_out_of": "77",
        "ranking": "1"
      }},
{ "see_all_photos": "http://www.tripadvisor.com/LocationPhotos-g60745-d258705-mMCID-Hotel_Commonwealth-Boston_Massachusetts.html",
      "web_url": "http://www.tripadvisor.com/Hotel_Review-g60745-d258705-Reviews-mMCID-Hotel_Commonwealth-Boston_Massachusetts.html",
      "percent_recommended": null,
      "location_string": "Dubai, UAE",
      "location_id": "258705",
      "write_review": "http://www.tripadvisor.com/UserReview-g60745-d258705-mMCID-Hotel_Commonwealth-Boston_Massachusetts.html",
      "price_level": "$$$$",
      "api_detail_url": "http://api.tripadvisor.com/api/partner/2.0/location/258705?key=<YOUR KEY HERE>",
      "address_obj": {
        "street1": "Plot 49 Sheikh Zayed Road",
        "street2": null,
        "city": "Dubai",
        "state": "UAE",
        "country": "UAE",
        "postalcode": "02215",
        "address_string": " Trade Centre District P.O.Box 9940  Dubai  United Arab Emirates"
      },
      "category": {
        "name": "hotel",
        "localized_name": "Hotel"
      },
      "awards": [
        {
          "award_type": "Traveler's Choice",
          "year": "2014",
          "images": {
            "small": "http://www.tripadvisor.com/img/cdsi/img2/awards/tchotel_2014_L_R-MCID-5.png",
            "large": "http://www.tripadvisor.com/img2/awards/TC_2014_downloadable_L_R.jpg"
          },
          "categories": [
            "Top Hotels"
          ],
          "display_name": "Traveler's Choice"
        },
        {
          "award_type": "Certificate of Excellence",
          "year": "2014",
          "images": {
            "small": "http://www.tripadvisor.com/img/cdsi/img2/awards/CERTIFICATE_OF_EXCELLENCE_small-MCID-5.jpg",
            "large": "http://www.tripadvisor.com/img/cdsi/img2/awards/CERTIFICATE_OF_EXCELLENCE_2014_en_US_large-MCID-5.jpg"
          },
          "categories": [],
          "display_name": "Certificate of Excellence 2014"
        }
      ],
      "num_reviews": "2583",
      "subcategory": [
        {
          "name": "hotel",
          "localized_name": "Hotel"
        }
      ],
      "rating_image_url": "http://www.tripadvisor.com/img/cdsi/img2/ratings/traveler/5.0-MCID-5.png",
      "name": "hotel radisson ",
      "ancestors": [
        {
          "abbrv": null,
          "level": "City",
          "name": "DUabi",
          "location_id": "60745"
        },
        {
          "abbrv": "MA",
          "level": "State",
          "name": "UAE",
          "location_id": "28942"
        },
        {
          "abbrv": null,
          "level": "Country",
          "name": "UAE",
          "location_id": "191"
        }
      ],
      "longitude": "25.271139",
      "latitude": "55.307485",
      "rating": "5.0",
      "ranking_data": {
        "geo_location_id": "60745",
        "ranking_string": "#4 of 77 hotels in DUbai",
        "geo_location_name": "Dubai",
        "ranking_out_of": "77",
        "ranking": "1"
      }
    
    
    }
  ],
  "paging": {
    "previous": null,
    "skipped": "0",
    "results": "3",
    "next": "http://api.tripadvisor.com/api/partner/2.0/location/60745/hotels?key=<YOUR KEY HERE>&limit=3&offset=3",
    "total_results": "10"
  }
}